﻿[
    {
        "_id":"c-101",
        "_parentId":"b-10",
        "_type":"component",
        "_component":"text",
        "_classes":"",
        "_layout":"full",
        "title":"Doğrudan pazarlama kampanyalarınızı geliştirin",
        "displayTitle":"Doğrudan pazarlama kampanyalarınızı geliştirin",
        "body":"İster uygulama yüklemelerini ister dönüşümleri hedefleyin, Audience Network doğrudan pazarlama kampanyalarınızı insanlara dayalı pazarlamanın ötesine taşıyarak sonuçlarınızı iyileştirebilir ve mobil uygulamalar ve internet sitelerinde platforma özel, ara reklam, reklam bandı, yayın içi ve ödüllü video reklam alanlarıyla hedef kitlenize erişmenize yardımcı olabilir.<br><br>Facebook’un sunduğu insanlara dayalı pazarlama imkanı, marka ve işletmelerin hedef kitleleriyle farklı cihazlarda alakalı ve anlamlı bağlantılar kurmasını sağlar. Audience Network, reklamlarınızı yüksek kaliteli üçüncü taraf yayıncılarda da yayınlayarak Facebook doğrudan pazarlama kampanyası amaçlarınızla elde ettiğiniz sonuçları iyileştirmenize yardımcı olur.<br><br><img src='course/en/images/visa_fb-an.jpg'><br><br><h2>Audience Network, Facebook reklam materyallerinizi farklı yayıncılarda kullanmanızı olanak tanır.</h2>",
            "instruction":"",
            "_pageLevelProgress": {
                "_isEnabled": true
            }
    },
    {
        "_id":"c-111",
        "_parentId":"b-11",
        "_type":"component",
        "_component":"text",
        "_classes":"",
        "_layout":"full",
        "title":"Genel Bakış",
        "displayTitle":"Genel Bakış",
        "body":"Audience Network’te yayınlanan reklamlar, Haber Kaynağı’nda yayınlanan Facebook reklamlarıyla aynı görselleri, videoları, metinleri ve eylem çağrılarını kullanır. Aşağıdaki doğrudan pazarlama amaçlarından birini kullandığınızda Audience Network reklam alanlarında reklam yayınlayabilirsiniz: <strong>Trafik</strong>, <strong>Dönüşümler</strong>, <strong>Uygulama Yüklemeleri</strong> ve <strong>Ürün Kataloğu Satışları</strong>. <em>Audience Network ile Kampanyanızın Erişimini Genişletin</em> adlı Blueprint kursu konuyla ilgili temel bilgiler sunar. Henüz tamamlamadıysanız öncelikle bu kursa katılmanızı tavsiye ederiz. Bu kursta Audience Network’ün işletmenizin doğrudan pazarlama hedeflerine daha başarılı şekilde ulaşmasına nasıl yardımcı olabileceği daha yakından incelenmektedir.",
            "instruction":"",
            "_pageLevelProgress": {
                "_isEnabled": true
            }
    },
    {
        "_id":"c-121",
        "_parentId":"b-12",
        "_type":"component",
        "_component":"text",
        "_classes":"",
        "_layout":"left",
        "title":"Öğrenme hedefleri",
        "displayTitle":"Öğrenme hedefleri",
        "body":"Bu kursa katıldığınızda şunları anlamış olacaksınız:<ul><li>Audience Network’ün sizi doğrudan pazarlama kampanyası hedeflerinizin ötesine nasıl taşıyabileceği</li><li>Hangi doğrudan pazarlama amaçlarının hangi cihazlarda, reklam alanlarında ve formatlarda desteklendiği</li><li>Reklam ve marka bütünlüğünüzün nasıl korunduğu</li><li>A/B testi yapma</li></ul>",
            "instruction":"",
            "_pageLevelProgress": {
                "_isEnabled": true
            }
    },
    {
        "_id":"c-122",
        "_parentId":"b-12",
        "_type":"component",
        "_component":"graphic",
        "_classes":"",
        "_layout":"right",
        "title":"",
        "displayTitle":"",
        "body":"",
        "instruction":"",
        "_graphic": {
            "alt": "Öğrenme hedefleri",
            "src": "course/en/images/learninggoals.jpg",
            "attribution":""
        }
    },
    {
        "_id": "c-191",
        "_parentId": "b-19",
        "_type": "component",
        "_component": "co-jump",
        "_classes": "color-test",
        "_preLinkBody": "Audience Network sayesinde doğrudan pazarlama kampanyalarınızı Facebook’un ötesine taşımanın artılarını ",
        "_linkBody": "Avantajlar",
        "_postLinkBody": " adlı başlıkta keşfedeceğiz.",
        "_link": "#/id/co-20",
        "_graphic": "adapt/css/assets/icon_nextPage.png",
        "_pageLevelProgress": {
            "_isEnabled": false
        }
    },
    {
        "_id":"c-201",
        "_parentId":"b-20",
        "_type":"component",
        "_component":"text",
        "_classes":"",
        "_layout":"full",
        "title":"Hedef kitlenize nerede olurlarsa olsunlar erişin",
        "displayTitle":"Önemsediğiniz işletme sonuçlarını elde edin",
        "body":"<h2>Facebook reklamları hakkında sevdiğiniz her şeyi farklı yayıncılarda ve cihazlarda kullanmaya devam edin</h2>Doğrudan pazarlama hedeflerinize ulaşmak için işletmenize gerçek sonuçlar kazandıran kişilerle anlamlı bağlantılar kurmanız hayati önem taşır. Ancak insanlara zaman geçirdikleri her yerde etkili bir şekilde erişmek oldukça zordur. Mobildeki her 5 dakikadan 1’i Facebook ve Instagram’da geçiyor<sup>1</sup>, ancak dijital medya kullanımı artmaya devam ediyor ve insanlar zamanlarının önemli bir kısmını da başka uygulamalarda ve sitelerde geçiriyor. Peki geriye kalan bu 4 dakika nerede geçiyor?",
            "instruction":"",
            "_pageLevelProgress": {
                "_isEnabled": true
            }
    },
    {
        "_id":"c-211",
        "_parentId":"b-21",
        "_type":"component",
        "_component":"textOverlay",
        "_classes":"",
        "_layout":"full",
        "title":"",
        "displayTitle":"",
        "body":"",
        "instruction":"",
        "text":"Mobildeki her 5 dakikadan 1’i Facebook ve Instagram’da geçiyor. Peki ya geriye kalan zaman?",
        "fontSize":"2vw",
        "lineHeight":"",
        "fontColor":"#ffffff",
        "dropShadow":"5px 5px 5px rgba(0,0,0,.8)",
        "_graphic": {
            "alt": "Her 5 dakikadan 1’i Facebook’ta geçiyor",
            "large": "course/en/images/1in5.jpg",
            "small": "course/en/images/1in5.jpg",
            "attribution":"<sup>1</sup><cite>Kaynak: Nielsen Mobile Netview, Mart 2016 (Facebook/IG Verileri)</cite>"
        }
    },
    {
        "_id":"c-221",
        "_parentId":"b-22",
        "_type":"component",
        "_component":"text",
        "_classes":"",
        "_layout":"full",
        "title":"Facebook reklamlarınızı birbirinden kaliteli üçüncü taraf yayıncılarda yayınlayın",
        "displayTitle":"Facebook reklamlarınızı birbirinden kaliteli üçüncü taraf yayıncılarda yayınlayın",
        "body":"<h2>Müşterileriniz Facebook’ta çok zaman geçiriyor olsalar da başka yerlere de uğruyorlar!</h2>Yalnızca Haber Kaynağı’nda ve Instagram’da reklam satın alıyorsanız, hedef kitlenize zaman geçirdikleri diğer uygulamalarda ve sitelerde erişme fırsatını kaçırıyor ve muhtemelen kampanyanızın performansını ve verimliliğini olumsuz etkiliyorsunuz.<br><br><h2>Reklam bütçenizi, mevcut ve potansiyel müşterilerinizin zaman geçirdikleri yerde harcayın.</h2>Facebook, reklamınızı en iyi performans gösterdiği platformda yayınlar: Facebook, Instagram veya Audience Network. Audience Network’ü Facebook kampanyalarınızın performansını artırmak ve daha çok platformda daha çok kişiye erişmek için kullanabileceğiniz ve doğrudan pazarlama kampanyası hedeflerinize ulaşmanızı sağlayacak bir araç olarak düşünün.",
            "instruction":"",
            "_pageLevelProgress": {
                "_isEnabled": true
            }
    },
    {
    "_id":"c-231",
    "_parentId":"b-23",
    "_type":"component",
    "_component":"canvas-animation",
    "_classes":"",
    "_layout":"full",
    "title":"",
    "displayTitle":"Daha çok potansiyel müşteriye erişin",
    "animationName":"Three_items",
    "animation":"course/en/animations/three_items/three_items.js",
    "body":"<div id='three_items'>Audience Network, Facebook’taki doğrudan pazarlama özelliğinden elde ettiğiniz avantajları bir üst seviyeye taşıyarak çok sayıda kaliteli uygulama ve internet sitesi yayıncısında reklam yayınlamanıza imkan tanır.</div>",
    "_resources": {
        "textStyle_1":{"font":"20px freight-sans-pro","fill": "#000000","wordWrap": true,"wordWrapWidth":280,"align": "center","lineSpacing": -10 },
        "item_1":"course/en/animations/three_items/item_1.png",
        "item_2":"course/en/animations/three_items/item_2.png",
        "item_3":"course/en/animations/three_items/item_3.png",
        "text_1":"İnsanlara dayalı pazarlama:\nFacebook’u her ay 2,01 milyarı aşkın insan kullanıyor(2)",
        "text_2":"Facebook dışındaki reklam alanları:\nPlatforma özel, ara reklam, reklam bandı, yayın içi ve ödüllü video",
        "text_3":"Ölçüm:\nFarklı cihazlar, kanallar ve yayıncılar."
        },
        "instruction":"",
        "_pageLevelProgress": {
        "_isEnabled": true
        }
    },
    {
        "_id":"c-223",
        "_parentId":"b-23",
        "_type":"component",
        "_component":"text",
        "_classes":"",
        "_layout":"full",
        "title":"",
        "displayTitle":"",
        "body":"Audience Network, reklamlarınızı hedef kitlenizle alakalı Facebook dışındaki kaliteli yayıncılarda da yayınlayarak daha iyi sonuçlar sunmak için Facebook’un optimizasyon motoruna ek olarak bu araçları kullanır.<br><br><sup>2</sup><cite>Facebook 2017 2. Çeyrek Kazanç Raporu</cite>",
            "instruction":"",
            "_pageLevelProgress": {
                "_isEnabled": true
            }
    },
    {
        "_id": "c-241",
        "_parentId": "b-24",
        "_classes": "",
        "_type":"component",
        "_layout": "full",
        "_component": "narrative",
        "title": "",
        "displayTitle": "Kişiler, platformlar, sonuçlar",
        "body": "Audience Network üzerinden yayınlanan Facebook reklamları doğrudan pazarlama kampanyanızı nasıl geliştirebilir?",
        "instruction": "",
        "_hasNavigationInTextArea": false,
        "mobileInstruction": "",
        "_setCompletionOn":"inview",
        "_items": [
            {
                "title": "Kişiler",
                "body": "Audience Network’ü kullanan reklamverenler, yalnızca Facebook ve Instagram’da reklam veren reklamverenlere kıyasla ortalama %16 daha fazla kişiye erişebilir. Dünya genelinde her ay 1 milyarı aşkın insan Audience Network üzerinden yayınlanan bir reklam görüyor.<sup>3</sup>",
                "_graphic": {
                    "src": "course/en/images/people.png",
                    "alt": "İlk grafik"
                },
                "strapline": "İşte ilki..."
            },
            {
                "title": "Platformlar",
                "body": "Günümüzde Apple App Store ve Google Play mağazalarındaki başlıca 500 uygulamanın %40’ından fazlası Audience Network’e entegredir ve bu durum reklamlarınızın bu popüler uygulamalarda yayınlanabileceği anlamına gelmektedir.<sup>4</sup>",
                "_graphic": {
                    "src": "course/en/images/places.png",
                    "alt": "Platformlar:"
                },
                "strapline":"Platformlar"
            },
            {
                "title": "Sonuçlar",
                "body": "Hedefimiz, daha verimli şekilde daha fazla uygulama yüklemesi, dönüşüm veya trafik elde etmenize yardımcı olarak kampanyalarınızın değerinin sürekli artmasını sağlamaktır. Audience Network’ü kullanmaktan vazgeçen reklamverenlerin ortalama %15 oranında daha az dönüşüm elde ettiğini tespit ettik.<sup>5</sup>",
                "_graphic": {
                    "src": "course/en/images/results.png",
                    "alt": "Sonuçlar"
                },
                "strapline": "Sonuçlar"
            }
        ]
    },
    {
        "_id":"c-242",
        "_parentId":"b-24",
        "_type":"component",
        "_component":"text",
        "_classes":"",
        "_layout":"full",
        "title":"",
        "displayTitle":"",
        "body":"<sup>3</sup><cite>Dahili Facebook Audience Network Verileri, 21.10.2016 tarihinden itibaren 30 günlük bir süre içerisinde dünya çapında ölçülen erişim</cite><br><sup>4</sup><cite>Apple App Store ve Google Play’deki başlıca 500 ücretli ve ücretsiz uygulamaya dayalı olarak oluşturulan App Annie ve dahili Facebook verileri, Aralık 2016</cite><br><sup>5</sup><cite>İnternet sitesi dönüşüm kampanyalarına dayalı olarak oluşturulan Dahili Facebook Audience Network Verileri, Ekim 2016</cite>",
            "instruction":"",
            "_pageLevelProgress": {
                "_isEnabled": true
            }
    },
    {
        "_id":"c-251",
        "_parentId":"b-25",
        "_type":"component",
        "_component":"text",
        "_classes":"",
        "_layout":"full",
        "title":"Daha yüksek performans",
        "displayTitle":"Daha yüksek performans",
        "body":"Belirli reklam verme amaçları için, reklamverenlerin yalnızca Facebook yerine Facebook ve Audience Network’te reklam vermeyi seçtiklerinde kampanya performanslarının büyük ölçüde yükseldiğini tespit ettik.<br><br><h2>Daha fazla dönüşüm, daha az CPA</h2>İnternet sitesi dönüşüm kampanyaları için Facebook ve Audience Network bir arada kullanıldığında, reklamverenlerin ortalama %12 daha fazla dönüşüm ve %8 daha az CPA elde ettiği görüldü.<sup>6</sup><br><br><h2>Uygulama yüklemelerinde ve uygulamadaki alışverişlerde artış</h2>Mobil uygulama kampanyaları için Facebook ve Audience Network bir arada kullanıldığında, reklamverenlerin yüklemelerde ortalama %17, uygulamadaki alışverişlerde ise %9 artış elde ettiği görüldü.<sup>6</sup><br><br><sup>6</sup><cite>Dahili Facebook Verileri, Ekim 2016</cite>",
            "instruction":"",
            "_pageLevelProgress": {
                "_isEnabled": true
            }
    },
    {
        "_id": "c-291",
        "_parentId": "b-29",
        "_type": "component",
        "_component": "co-jump",
        "_classes": "color-test",
        "_preLinkBody": "Sıradaki bölümde Audience Network’te doğrudan pazarlama kampanyaları için kullanılabilen ",
        "_linkBody": "Reklam Verme Amaçları ve Reklam Alanları",
        "_postLinkBody": " hakkında bilgi alacağız.",
        "_link": "#/id/co-30",
        "_graphic": "adapt/css/assets/icon_nextPage.png",
        "_pageLevelProgress": {
            "_isEnabled": false
        }
    },
    {
        "_id":"c-301",
        "_parentId":"b-30",
        "_type":"component",
        "_component":"text",
        "_classes":"",
        "_layout":"left",
        "title":"Önemsediğiniz işletme sonuçlarını elde edin",
        "displayTitle":"Önemsediğiniz işletme sonuçlarını elde edin",
        "body":"Audience Network, aşağıdaki amaçlardan birini kullanan doğrudan pazarlama kampanyalarını genişleterek farklı üçüncü taraf uygulama ve internet sitelerinde yayınlamanıza imkan tanır:<br><br><ul><li>Trafik</li><li>Uygulama yüklemeleri</li><li>Dönüşümler</li><li>Ürün kataloğu satışları</li></ul>",
            "instruction":"",
            "_pageLevelProgress": {
                "_isEnabled": true
            }
    },
    {
        "_id":"c-302",
        "_parentId":"b-30",
        "_type":"component",
        "_component":"graphic",
        "_classes":"",
        "_layout":"right",
        "title":"",
        "displayTitle":"",
        "body":"",
        "instruction":"",
        "_graphic": {
            "alt": "Öğrenme hedefleri",
            "large": "course/en/images/objectives.jpg",
            "attribution":""
        }
    },
     {
        "_id":"c-311",
        "_parentId":"b-31",
        "_type":"component",
        "_component":"text",
        "_classes":"",
        "_layout":"full",
        "title":"Kullanılabilen reklam verme amaçları",
        "displayTitle":"Desteklenen cihaz, reklam alanı ve formatlara göre reklam verme amaçları",
        "body":"Facebook reklamlarıyla kullanılabilen reklam formatlarının çoğu Audience Network’te de desteklenmektedir. Tek görsel, tek video ve döngü (görsel) çoğu doğrudan pazarlama amacı için desteklenmekte, ancak koleksiyon formatı ve kanvas deneyimi şimdilik Audience Network’te kullanılamamaktadır. Şu anda desteklenen reklam verme amaçlarına, cihazlara (mobil, bilgisayar vb.), formatlara (görsel, video vb.) ve reklam alanlarına (platforma özel, ara reklam vb.) aşağıdan göz atabilirsiniz.<br><br><div style='overflow-x:auto;'><table class='table-style-6'><tr><th class='table-style-6'style='text-align:left'>Reklam verme amacı</th><th class='table-style-6'style='text-align:left'>Kullanılabilen cihazlar</th><th class='table-style-6'style='text-align:left'>Reklam alanları</th><th class='table-style-6'style='text-align:left'>Desteklenen formatlar</th></tr><tr><td class='table-style-6' style='text-align:left'><strong>Dönüşümler<strong></td><td class='table-style-6' style='text-align:left'>mobil, site</td><td class='table-style-6' style='text-align:left'>platforma özel/ara reklam/reklam bandı, yayın içi video*</td><td class='table-style-6' style='text-align:left'>tek görsel, tek video, dönen görsel***</td></tr><tr><td class='table-style-6' style='text-align:left'><strong>Uygulama yüklemeleri</strong></td><td class='table-style-6' style='text-align:left'>mobil</td><td class='table-style-6' style='text-align:left'>platforma özel/ara reklam/reklam bandı, ödüllü video**</td><td class='table-style-6' style='text-align:left'>tek görsel, tek video, dönen görsel***</td></tr><tr><td class='table-style-6' style='text-align:left'><strong>Trafik</strong></td><td class='table-style-6' style='text-align:left'>mobil</td><td class='table-style-6' style='text-align:left'>platforma özel/ara reklam/reklam bandı</td><td class='table-style-6' style='text-align:left'>tek görsel, tek video, dönen görsel***</td></tr><tr><td class='table-style-6' style='text-align:left'><strong>Ürün kataloğu satışları</strong></td><td class='table-style-6' style='text-align:left'>mobil</td><td class='table-style-6' style='text-align:left'>platforma özel/ara reklam/reklam bandı</td><td class='table-style-6' style='text-align:left'>tek görsel, dönen görsel***</td></tr></table></div><br><br><cite>*Dönüşümler reklam verme amacına yönelik yayın içi video yalnızca bilgisayarda kullanılabilir.</cite><br><cite>**Ödüllü videolar henüz tüm reklamverenler tarafından kullanılamamaktadır.</cite><br><cite>***Dönen formatta görseller desteklenirken, videolar desteklenmemektedir.</cite>",
        "instruction":"",
        "_pageLevelProgress": {
            "_isEnabled": true
        }
    },
    {
        "_id":"c-321",
        "_parentId":"b-32",
        "_type":"component",
        "_component":"graphic",
        "_classes":"",
        "_layout":"right",
        "title":"trafik görselleri",
        "displayTitle":"",
        "body":"",
        "instruction":"",
        "_graphic": {
            "alt": "Trafik",
            "large": "course/en/images/traffic.png",
            "small": "course/en/images/traffic.png",
            "attribution":"<center>Trafik reklamı</center>"
        },
        "_pageLevelProgress": {
            "_isEnabled": false
        }
    },
    {
        "_id":"c-322",
        "_parentId":"b-32",
        "_type":"component",
        "_component":"text",
        "_classes":"",
        "_layout":"left",
        "title":"Erişim",
        "displayTitle":"Trafik",
        "body":"Trafik reklam verme amacı, hedef kitlenizi ürün veya hizmetiniz için ilgi ve satın alma niyeti oluşturabileceğiniz belirli bir hedefe yönlendirmenize yardımcı olur. Audience Network, kullanıcıların yüksek seviyede etkileşim sergilediği internet sitelerinde ve mobil uygulamalarda iyi hedeflenmiş reklamlar yayınlayarak trafik çekme potansiyelinizi artırır.<br><br>Reklamınıza tıklayan insanları şu konumlara yönlendirebilirsiniz:<ul><li>İnternet sitesi</li><li>Uygulama</li><li>Messenger deneyimi</li></ul>",
        "instruction":"",
        "_pageLevelProgress": {
            "_isEnabled": true
        }
    },
    {
        "_id":"c-331",
        "_parentId":"b-33",
        "_type":"component",
        "_component":"text",
        "_classes":"",
        "_layout":"left",
        "title":"Erişim",
        "displayTitle":"Uygulama yüklemeleri",
        "body":"Mobil uygulamanızı yüklemeleri için yeni müşterilere mi erişmek istiyorsunuz yoksa uygulamanızda değerli eylemler gerçekleştirme ihtimali yüksek olan kişilere erişmek mi? <br><br>Audience Network’te reklamınızı “Şimdi İndir” veya “Uygulamayı Kullan” gibi bir eylem çağrısı ile gösterebilirsiniz. Müşteriler eylem çağrısına tıkladığında uygulamanızı indirmek için doğrudan App Store’a veya uygulamanızın belirli bir alanına yönlendirilir. Uygulama yükleme kampanyaları için Facebook ve Audience Network’ü kullanan reklamverenler, yüklemelerde ortalama %17 artış ve CPA’da ortalama %7 azalma elde etti.<sup>3</sup><br><br><sup>3</sup><cite>Dahili Facebook Verileri, Aralık 2016</cite>",
        "instruction":"",
        "_pageLevelProgress": {
            "_isEnabled": true
        }
    },
    {
        "_id":"c-332",
        "_parentId":"b-33",
        "_type":"component",
        "_component":"graphic",
        "_classes":"",
        "_layout":"right",
        "title":"Uygulama yüklemeleri görselleri",
        "displayTitle":"",
        "body":"",
        "instruction":"",
        "_graphic": {
            "alt": "Uygulama yüklemeleri",
            "large": "course/en/images/appinstalls.png",
            "small": "course/en/images/appinstalls.png",
            "attribution":"<center>Uygulama yükleme reklamı</center>"
        },
        "_pageLevelProgress": {
            "_isEnabled": false
        }
    },
    {
        "_id":"c-341",
        "_parentId":"b-34",
        "_type":"component",
        "_component":"text",
        "_classes":"",
        "_layout":"left",
        "title":"Dönüşümler",
        "displayTitle":"Dönüşümler",
        "body":"İnsanların reklamınızı gördükten sonra uygulamanızda veya internet sitenizde, bülteninize üye olmak ya da alışveriş yapmak gibi belirli bir eylem gerçekleştirmesini mi istiyorsunuz? Kampanya performansını ve verimliliğini artırmak için Audience Network’ü kullanın. Audience Network’ü kullanmak dönüşümlerde ortalama %12 artış sağlar.<sup>4</sup><br><br><div style='float:left;text-align:right;padding-right:15px;'><img src='course/en/images/note.png'></div><br><br><sup>4</sup><cite>Dahili Facebook Verileri, Ekim 2016</cite>",
        "instruction":"",
        "_pageLevelProgress": {
            "_isEnabled": true
        }
    },
    {
        "_id":"c-342",
        "_parentId":"b-34",
        "_type":"component",
        "_component":"graphic",
        "_classes":"",
        "_layout":"right",
        "title":"İçerik Obje Başlığı",
        "displayTitle":"",
        "body":"",
        "instruction":"",
        "_graphic": {
            "alt": "Dönüşümler",
            "large": "course/en/images/conversions.png",
            "small": "course/en/images/conversions.png",
            "attribution":"<center>Dönüşüm ara reklamı</center>"
        },
        "_pageLevelProgress": {
            "_isEnabled": false
        }
     },
    {
        "_id":"c-351",
        "_parentId":"b-35",
        "_type":"component",
        "_component":"text",
        "_classes":"",
        "_layout":"left",
        "title":"Ürün Kataloğu Satışları",
        "displayTitle":"Ürün kataloğu satışları",
        "body":"Ürün kataloğu satışları amacı aracılığıyla dinamik reklamları kullanıyorsanız, hedef kitlenize internet sitenizde veya uygulamanızda görüntüledikleri ürünlere dayalı olarak alakalı ve doğru zamanlamaya sahip reklamlarla erişmek için Audience Network’ü kullanın.",
        "instruction":"",
        "_pageLevelProgress": {
            "_isEnabled": true
        }
    },
    {
        "_id":"c-352",
        "_parentId":"b-35",
        "_type":"component",
        "_component":"graphic",
        "_classes":"",
        "_layout":"right",
        "title":"",
        "displayTitle":"",
        "body":" ",
        "instruction":"",
        "_graphic": {
            "alt": "Katalog",
            "large": "course/en/images/catlog.png",
            "small": "course/en/images/catlog.png",
            "attribution":"<center>Bir mobil uygulamadaki katalog reklamı</center>"
        },
        "_pageLevelProgress": {
            "_isEnabled": false
        }
    },
    {
        "_id":"c-361",
        "_parentId":"b-36",
        "_type":"component",
        "_component":"text",
        "_classes":"",
        "_layout":"right",
        "title":"Reklam alanı tasarım kuralları",
        "displayTitle":"Reklam alanı tasarım kuralları",
        "body":"Bir reklamveren olarak reklamlarınızın aldığı tıklamaların sayılmasını istersiniz. Başarısız bir reklam ünitesi tasarımı yüzünden istem dışı yapılan bir tıklama, potansiyel müşterilerinizin olumsuz bir reklam deneyimi yaşamasına ve böylece kampanyanızın olumsuz etkilenmesine neden olabilir. Reklamlarınızın marka bütünlüğünü koruyan ve anlamlı tıklamaları teşvik eden kaliteli reklam ünitelerinde yayınlandığından emin olabilmeniz için, Audience Network yayıncıları reklamların uygulanmasına ilişkin çeşitli kurallara uyar.<br><br><h2>Doğru tıklamaların sayıldığından emin olun</h2>Audience Network “istem dışı tıklamaları” saymadığı için bir kişi hedef internet adresinde (URL) niyetini net bir şekilde belli edecek kadar uzun süre kalmadığı sürece o tıklama için ödeme yapmazsınız.",
        "instruction":"",
        "_pageLevelProgress": {
            "_isEnabled": true
        }
    },
    {
        "_id":"c-362",
        "_parentId":"b-36",
        "_type":"component",
        "_component":"graphic",
        "_classes":"",
        "_layout":"left",
        "title":"",
        "displayTitle":"",
        "body":" ",
        "instruction":"",
        "_graphic": {
            "alt": "Doğru tıklamaların sayılması önemlidir",
            "large": "course/en/images/clickscount.jpg",
            "small": "course/en/images/clickscount.jpg",
            "attribution":""
        },
        "_pageLevelProgress": {
            "_isEnabled": false
        }
    },
    {
        "_id":"c-371",
        "_parentId":"b-37",
        "_type":"component",
        "_component":"text",
        "_classes":"",
        "_layout":"full",
        "title":"Audience Network ilgi çekici reklam deneyimleri sunmak için neler yapar?",
        "displayTitle":"",
        "body":"<h2>Audience Network ilgi çekici reklam deneyimleri sunmak için neler yapar?</h2><br>Audience Network yayıncılarının, reklamlarla elde edilen etkileşimi en üst düzeye çıkarmak, yüksek kaliteli bir ekosistem oluşturmak ve insanlara ve işletmelere harika bir deneyim sunmak için reklam alanları oluştururken belirli gerekliliklere uyması gerekir.<br><br><h3>Ayırt edilebilir reklam</h3>Reklamlar, yayıncının içeriğinin geri kalanından net bir şekilde farklı olmalı ve reklamın kenar çizgileri açıkça gözükmelidir. Ayrıca reklamın ayırt edilebilmesi için net bir şekilde “Sponsorlu”, “Tanıtım” veya “Reklam” olarak işaretlenmiş olması gerekir.<br><br><h3>Tıklanabilir alanlar</h3>Yanlışlıkla yapılan tıklamaları en aza indirmek isteyen yayıncıların, platforma özel reklamları yayınlarken yalnızca reklamverene ait reklam materyallerinin tıklanabilir olduğundan emin olması gerekir. Diğer bir deyişle, reklam görselinin arka plan olarak kullanıldığı durumlar da dahil olmak üzere reklamın arka planı tıklanabilir olmamalıdır (yani tıklanabilir “boşluk” olmamalıdır). Ayrıca reklam ile uygulamadaki diğer tıklanabilir alanlar arasında belirgin bir boşluk olmalıdır. Reklamın tıklanabilir kısmı, reklamınızı oluştururken belirlediğiniz bir eylem çağrısı düğmesi olmalıdır (ör. “Uygulamayı yükle”, “Şimdi Alışveriş Yap”).<br><br><h3>Zorunlu materyaller</h3>Yayıncılar aşağıdaki reklamveren materyallerini platforma özel reklam tasarımlarına eklemek zorundadır:<ul><li> Reklam başlığı</li><li>Eylem çağrısı düğmesi (ör. Şimdi Yükle, Daha Fazla Bilgi Al)</li><li>Reklamverenin simgesi veya kreatif materyali (ör. görsel, video, döngü)</li><li>Tıklamayla gidilen URL</li><li>AdChoices simgesi</li></ul>",
        "instruction":"",
        "_pageLevelProgress": {
            "_isEnabled": true
        }
    },
    {
        "_id":"c-381",
        "_parentId":"b-38",
        "_type":"component",
        "_component":"text",
        "_classes":"",
        "_layout":"full",
        "title":"Platforma özel reklam üniteleri",
        "displayTitle":"Platforma özel reklam üniteleri",
        "body":"Görsel, döngü veya video olmasına bakılmaksızın, Audience Network reklamlarının büyük çoğunluğu platforma özel reklam alanlarında yayınlanır. Platforma özel reklam, uygulamaya veya internet sitesine sorunsuz şekilde uyan ve özel tasarlanmış bir ünitedir. Platforma özel reklamlar arayüzle doğal bir uyum içindedir ve kullanıcıya daha olumlu bir deneyim sunabilir. Platforma özel reklamlar hem göründükleri uygulamaya sorunsuz şekilde entegre olarak harika bir kullanıcı deneyimi sunar hem de reklamverenin materyallerinin bütünlüğünün korunmasına yardımcı olur. Audience Network’ün mobil uygulamadaki gösterimlerinin <strong>%86</strong>’sı platforma özeldir.<sup>5</sup><br><br><sup>5</sup><cite>Dahili Facebook Verileri, Nisan 2017</cite>",
        "instruction":"",
        "_pageLevelProgress": {
            "_isEnabled": true
        }
    },
    {
        "_id":"c-382",
        "_parentId":"b-38",
        "_type":"component",
        "_component":"graphic",
        "_classes":"",
        "_layout":"full",
        "title":"",
        "displayTitle":"Facebook reklamlarınız platforma özel reklamlara nasıl dönüştürülür?",
        "body":"Aşağıdaki iki görselde Facebook reklamınızdaki materyallerin aynılarının, yayınlanacakları uygulamaya sorunsuz veya \"platforma özel\" şekilde uyması için nasıl tasarlandığını ve yapılandırıldığını inceleyin.",
        "instruction":"",
        "_graphic": {
            "alt": "Platforma özel materyaller",
            "large": "course/en/images/native_assets.png",
            "small": "course/en/images/native_assets.png",
            "attribution":""
        },
        "_pageLevelProgress": {
            "_isEnabled": false
        }
    },
    {
        "_id":"c-383",
        "_parentId":"b-38",
        "_type":"component",
        "_component":"text",
        "_classes":"",
        "_layout":"full",
        "title":"",
        "displayTitle":"",
        "body":"<h2><ol><li>Reklamverenin simgesi</li><li>Reklam metni</li><li>Görsel</li><li>Reklam başlığı</li><li>Eylem çağrısı düğmesi</li></ol></h2>",
        "instruction":"",
        "_pageLevelProgress": {
            "_isEnabled": true
        }
    },
    {
        "_id":"c-390",
        "_parentId":"b-39",
        "_type":"component",
        "_component":"text",
        "_classes":"",
        "_layout":"full",
        "title":"Marka Güvenliği",
        "displayTitle":"Marka Güvenliği",
        "body":"Facebook, reklamlarınızın markanızın itibarını zedelemeyecek kaliteli ortamlarda yayınlanmasını sağlamaya büyük önem verir. Marka güvenliği ve kalitenin sağlanmasına ek olarak Audience Network İlkesi ve Facebook Topluluk Standartları’na uyulduğundan emin olunması için tüm Audience Network yayıncıları kapsamlı bir inceleme sürecinden geçer ve sürekli olarak izlenir. Reklamverenler aşağıdaki araçları kullanarak markalarının bütünlüğünün korunmasını sağlayabilirler:<br><br><ul><li><strong>Kategori engelleme</strong><br>Reklamlarınızın flört hizmetleri, şans oyunları, yetişkinlere yönelik içerikler veya trajedi ve çatışma gibi belirli içerik kategorilerinin yanında yayınlanmasını engelleyin.</li><li><strong>Kampanya öncesi şeffaflık</strong><br>Reklamlarınızın yayınlanabileceği tüm uygulama ve internet sitelerinin listesine bakın ve reklamlarınızın yayınlanmasını istemediğiniz yerleri engelleyin.</li><li><strong>Reklam alanı seçimi kontrolleri</strong><br>Reklamlarınızın hangi reklam alanlarında yayınlanmasını istediğinizi seçin.</li><li><strong>Engellenenler listeleri</strong><br>Reklamlarınızın yayınlanmasını istemediğiniz domainlerin ve uygulamaların listesini yükleyin.</li></ul><br><br>Aşağıdaki Blueprint kurslarına katılarak Facebook ve Audience Network’ün markanızın güvenliğinin korunmasına nasıl yardımcı olabileceği hakkında daha fazla bilgi alın:<br><ul><li><em>Audience Network ile Facebook Kampanyalarınızın Erişimini Genişletin</em></li><li><em>Facebook Uygulama ve Hizmetler Ailesinde Marka Güvenliği</em></li></ul>",
        "instruction":"",
        "_pageLevelProgress": {
            "_isEnabled": true
        }
    },
    {
        "_id": "c-401",
        "_parentId": "b-40",
        "_type": "component",
        "_component": "co-jump",
        "_classes": "color-test",
        "_preLinkBody": "Sıradaki bölümde Audience Network’te yayınlanan doğrudan pazarlama kampanyalarınızla ilgili ",
        "_linkBody": "Ölçüm ve Testler",
        "_postLinkBody": " hakkında bilgi alacağız.",
        "_link": "#/id/co-40",
        "_graphic": "adapt/css/assets/icon_nextPage.png",
        "_pageLevelProgress": {
            "_isEnabled": false
        }
    },
    {
        "_id":"c-411",
        "_parentId":"b-41",
        "_type":"component",
        "_component":"text",
        "_classes":"",
        "_layout":"full",
        "title":"Hedeflerinize ulaşmanıza nelerin yardımcı olduğu hakkında bilgi edinin",
        "displayTitle":"Hedeflerinize ulaşmanıza nelerin yardımcı olduğu hakkında bilgi edinin",
        "body":"Tüketici davranışlarının farklı cihaz ve kanallara dağılan doğası gereği, pazarlamacıların çalışmalarını değerlendirmek için doğru ölçümlere ulaşmaları hiç olmadığı kadar önemli hale gelmiştir. Doğrudan pazarlama kampanyanızın performansını ölçmek ve sonuçlarını anlamak için kullanabileceğiniz insanlara dayalı ölçüm çözümleri sayesinde:<br><br><ul>Hem Facebook’ta hem de Facebook dışında tüketici yolculuğu boyunca işletmenizin elde ettiği gerçek sonuçları ölçün.</li><li>Kampanyaları, çerezler veya cihaz kimlikleri gibi aracılar yerine gerçek insanları temel alarak ölçün.</li><li>Audience Network’ü kullanarak elde ettiğiniz ilave iş hacmini anlayabilmek için ilave yükseliş ve ilişkilendirme ölçümü yapın. </li><li>İşletmeniz için önemli olan ölçümleri yapın.</li></ul>",
            "instruction":"",
            "_pageLevelProgress": {
                "_isEnabled": true
            }
    },
    {
        "_id":"c-421",
        "_parentId":"b-42",
        "_type":"component",
        "_component":"graphic",
        "_classes":"",
        "_layout":"right",
        "title":"",
        "displayTitle":"",
        "body":"",
        "instruction":"",
        "_graphic": {
            "alt": "Ölçüm",
            "large": "course/en/images/splittest.jpg",
            "small": "course/en/images/splittest.jpg",
            "attribution":""
        }
    },
    {
        "_id":"c-422",
        "_parentId":"b-42",
        "_type":"component",
        "_component":"text",
        "_classes":"",
        "_layout":"left",
        "title":"A/B testleri ",
        "displayTitle":"A/B testleri",
        "body":"A/B testleri, reklamverenlerin reklamların farklı unsurlarının kampanya performansını nasıl etkilediğini anlamalarına yardımcı olur. Reklam Yöneticisi’nde istediğiniz zaman A/B testi oluşturabilirsiniz. Reklamlarınızın farklı özelliklerinin Facebook, Instagram ve Audience Network’te kampanya performansını nasıl etkilediğini anlamak için bir A/B testi yapmayı deneyin. Aşağıdaki doğrudan pazarlama amaçları için bir A/B testi oluşturarak Audience Network’te performans değerlendirmesi yapabilirsiniz.<br><br><ul><li>Uygulama yüklemeleri</li><li>Dönüşümler</li></ul><br><br><div style='float:left;text-align:right;padding-right:15px;'><img src='course/en/images/note.png'></div>Not: İstatistiksel olarak anlamlı sonuçlar elde edilebilmesi için doğrudan pazarlama A/B testinin en az 35.000 gösterimlik erişime sahip olması gerekir.",
            "instruction":"",
            "_pageLevelProgress": {
                "_isEnabled": true
            }
    },
    {
        "_id":"c-431",
        "_parentId":"b-43",
        "_type":"component",
        "_component":"text",
        "_classes":"",
        "_layout":"full",
        "title":"Nasıl çalışır?",
        "displayTitle":"Nasıl çalışır?",
        "body":"A/B testleri, reklam kampanyalarınızın farklı değişkenlerini test etmenize imkan tanıyarak en çok nelerin işe yaradığını görmenizi ve kampanyalarınızın başarısını artırıp gelecekteki medya planlarınızı iyileştirmenizi sağlar. Kreatif materyalleri, reklam başlığı ve metni ve reklam alanları gibi bileşenleri test edebilirsiniz. Bir A/B testi yaparken:<br><br><ul><li>Hedef kitle çakışması olmayan kontrollü A/B testleri yapın.</li><li>Net, tek değişkenli testler oluşturun.</li><li>Sonuçları ölçün ve reklam performansını optimize edin.</li></ul>",
            "instruction":"",
            "_pageLevelProgress": {
                "_isEnabled": true
            }
    },
    {
        "_id": "c-442",
        "_parentId": "b-44",
        "_type": "component",
        "_component": "animate-flowchart",
        "_classes": "",
        "_layout": "full",
        "title": "",
        "displayTitle": "",
        "body": "",
        "instruction": "",
        "_animationOffset": 1000,
        "_pageLevelProgress": {
            "_isEnabled": true
        },
        "_items": {
            "far_left": {
                "graphic": "course/en/images/fbstart.png",
                "caption": "Facebook Topluluğu"
            },
            "top_left": {
                "graphic": "course/en/images/testgroup1.png",
                "caption": "1. TEST GRUBU",
                "color": "#8874B4"
            },
            "top_right": {
                "graphic": "course/en/images/testplace1.png",
                "caption": "1. VERSİYON",
                "color": "#8874B4"
            },
            "bottom_left": {
                "graphic": "course/en/images/testgroup2.png",
                "caption": "2. TEST GRUBU",
                "color": "#71C9B8"
            },
            "bottom_right": {
                "graphic": "course/en/images/testplace2.png",
                "caption": "1. VERSİYON",
                "color": "#71C9B8"
            },
            "far_right": {
                "graphic": "course/en/images/winning.png",
                "caption": "EN ETKİLİ REKLAMI TESPİT ETME"
            }
        }
    },
    {
        "_id":"c-451",
        "_parentId":"b-45",
        "_type":"component",
        "_component":"text",
        "_classes":"",
        "_layout":"full",
        "title":"Nasıl çalışır?",
        "displayTitle":"Audience Network için A/B testi ",
        "body":"Audience Network’te performansın doğru şekilde değerlendirilmesi için Uygulama yüklemesi ve Dönüşüm kampanyaları için A/B testi oluşturmanızı tavsiye ederiz. Sonuçları takip edebilmemiz için internet sitenizde Facebook dönüşüm pikselinin ve/veya mobil uygulamanızda SDK’nin bulunduğundan emin olun.<br><br><ul><li>Reklamları Facebook Haber Kaynağı’nda yayınlayın ve Audience Network’ü dahil edin.</li><li>Performansı takip edin: İnternet sitenize Facebook dönüşüm pikselini ve/veya mobil uygulamanıza SDK’yi yükleyin.</li><li>Bir kampanya oluşturun ve A/B testi yapın</li><li>Kampanyanızın Audience Network ve Haber Kaynağı’nı birlikte kullandığınızda gösterdiği performansla sadece Haber Kaynağı’nı kullandığınızda gösterdiği performansı karşılaştırın.</li><li>Sonuçları değerlendirin: Kampanyalarınızın performansını ve A/B testlerinin sonuçlarını <a href='https://www.facebook.com/ads/manage/powereditor/reporting' target=_blank>Reklam Raporları</a> aracında görüntüleyin.</li></ul>",
            "instruction":"",
            "_pageLevelProgress": {
                "_isEnabled": true

            }
    },
    {
        "_id":"c-452",
        "_parentId":"b-45",
        "_type":"component",
        "_component":"text",
        "_classes":"",
        "_layout":"full",
        "title":"Adım adım A/B testi",
        "displayTitle":"Adım adım A/B testi",
        "body":"<ul><li><strong>Reklam verme amacınızı seçin</strong> kısmı altında <strong>A/B Testi Oluşturun</strong>’u seçin.<br><br><img src='course/en/images/step1.png'><br><br></li><li>Reklam verme amacınız <strong>Dönüşümler</strong> ise dönüşüm olayınızı seçin. Reklam verme amacınız <strong>Uygulama yüklemeleri</strong> ise bu adımı atlayın.<br><br><img src='course/en/images/step1a.png'><br><br></li><li>Test etmek istediğiniz değişkeni seçin. <strong>Audience Network</strong>’ü test etmek için <strong>Reklam Alanı</strong>’nı seçin.<br><br><img src='course/en/images/step2.png'><br><br></li><li>Bir reklam seti için <strong>Otomatik Reklam Alanları</strong>’nı seçin (böylece reklam alanlarınız Facebook, Instagram ve Audience Network’te optimize edilir).<br><br><img src='course/en/images/step3.png'><br><br></li><li>Diğer reklam seti için <strong>Reklam Alanlarını Düzenle</strong>’yi seçin ve Audience Network seçimini kaldırın (böylece reklam alanlarınız yalnızca Facebook ve Instagram için optimize edilir).<br><br><img src='course/en/images/step4.png'><br><br></li><li>Kampanyanızı ve reklam setinizi oluşturmayı tamamlayın.</li><li>Kampanyanızı yayınlayın.</li><li>Sonuçları karşılaştırın.</li></ul>",
            "instruction":"",
            "_pageLevelProgress": {
                "_isEnabled": true
            }
    },
    {
        "_id":"c-481",
        "_parentId":"b-48",
        "_type":"component",
        "_component":"text",
        "_classes":"",
        "_layout":"full",
        "title":" Ölçümler, doğrudan pazarlama reklamları ve A/B testi hakkında daha fazla bilgi",
        "displayTitle":" Ölçümler, doğrudan pazarlama ve A/B testi hakkında daha fazla bilgi",
        "body":"Aşağıdaki Blueprint kurslarına göz atarak Facebook for Business’ta <a href='https://www.facebook.com/business/news/conversion-lift-measurement' target=_blank>dönüşüm yükselişi testi</a> uygulama hakkında daha fazla bilgi alın ve bu konuları daha ayrıntılı şekilde inceleyin:<br><br><em><ul><li>İnternette, Mağazalarda ve Mobil Uygulamalarda Eylemleri Artırma</li><li>Facebook ve Ortak Ölçüm Çözümlerini Kullanmaya Başlama</li><li>Reklam Raporlarını Kullanarak Kampanya Performansını Ölçme</li><li>Kampanyalar İçin Ölçüm, Optimizasyon ve Hedef Kitle Oluşturmada Facebook Pikselini Kullanma</li><li>Uygulamalar İçin Facebook Analytics: Pazarlama ve Ölçüm Yapın ve Uygulamanızı Büyütün</li></ul><em>",
            "instruction":"",
            "_pageLevelProgress": {
                "_isEnabled": true
            }
    },
    {
        "_id": "c-491",
        "_parentId": "b-49",
        "_type": "component",
        "_component": "co-jump",
        "_classes": "color-test",
        "_preLinkBody": "Sıradaki bölümde doğrudan pazarlama kampanyalarını güçlendirmek için Audience Network’ü kullanan reklamverenlerin ",
        "_linkBody": "Başarı Hikayeleri",
        "_postLinkBody": " hakkında bilgi alacağız.",
        "_link": "#/id/co-50",
        "_graphic": "adapt/css/assets/icon_nextPage.png",
        "_pageLevelProgress": {
            "_isEnabled": false
        }
    },
    {
        "_id":"c-501",
        "_parentId":"b-50",
        "_type":"component",
        "_component":"text",
        "_classes":"",
        "_layout":"full",
        "title":"Zynga",
        "displayTitle":"Zynga",
        "body":"<img src='course/en/images/zinga.jpg'><br><br><div align='center'><table width=90%><tr><td width=33%><div align='center' style='color:#4080FF; font-weight: bold; font-size: 36px'>%14</div><br><div align='center' style='color:#4080FF; font-weight: bold; font-size: 16px; padding-right:40px'>Erişim artışı<sup>1</sup></div></td><td width=34%><div align='center' style='color:#4080FF; font-weight: bold; font-size: 36px'>%25</div><br><div align='center' style='color:#4080FF; font-weight: bold; font-size: 16px; padding-right:20px'>İlave yükleme başına daha düşük ücret<sup>1</sup></div></td><td width=33%><div align='center' style='color:#4080FF; font-weight: bold; font-size: 36px'>4 kat</div><br><div align='center' style='color:#4080FF; font-weight: bold; font-size: 16px'>Daha yüksek ilave reklam harcaması getirisi<sup>1</sup></div></td></tr></table></div>",
            "instruction":"",
            "_pageLevelProgress": {
                "_isEnabled": true
            }
    },
    {
        "_id":"c-511",
        "_parentId":"b-51",
        "_type":"component",
        "_component":"text",
        "_classes":"",
        "_layout":"left",
        "title":"Oyunculara zamanlarını geçirdikleri platformlarda erişin",
        "displayTitle":"Oyunculara zamanlarını geçirdikleri platformlarda erişin",
        "body":"Zynga, yüksek değer sunan Android kullanıcılarını cep telefonlarına <strong>Wizard of Oz: Magic Matchgame</strong> oyununu yüklemeye teşvik etmek istiyordu ve bu nedenle yalnızca Facebook’ta reklam yayınlamak yerine Instagram, Facebook ve Audience Network’te reklam yayınlamanın daha iyi sonuçlar getirip getirmeyeceğini öğrenmek için bir <a href='https://www.facebook.com/business/news/conversion-lift-measurement' target=_blank>dönüşüm yükselişi testi</a> yaptı.<br><br>Facebook, Instagram ve Audience Network’te yayını optimize etmek için otomatik reklam alanlarını kullanarak en verimli reklam harcaması getirisini elde etti. Ardından Zynga Facebook’un ölçüm araçlarını kullanarak çok maddeli yükseliş testinin sonuçlarını analiz etti ve yalnızca Facebook’ta yayınlanan kampanyalarla reklam alanı optimizasyonunu kullanan kampanyaların sonuçlarını karşılaştırdı.<br><br><em>“Oyunlarımızın tanıtımını, ideal hedef kitlemizin zaman geçirdiği Instagram, Facebook ve Audience Network gibi sosyal platformlarda yapmamız son derece önemli. Günümüzde kullanılabilen birbirinden farklı reklam türleri, platformlar ve optimizasyon araçları düşünüldüğünde Instagram, Facebook ve Audience Network’te reklam vermek artık hiç olmadığı kadar etkili hale geldi.”</em><br><div align='right'>-Doug Scott, Baş Pazarlama Yöneticisi, Zynga</div><br><br><sup>1</sup><cite><a href='https://www.facebook.com/business/success/zynga-wizard-oz-magic-match' target=_blank>Zynga - Facebook Başarı Hikayeleri</a></cite>",
            "instruction":"",
            "_pageLevelProgress": {
                "_isEnabled": true
            }
    },
    {
       "_id":"c-512",
        "_parentId":"b-51",
        "_type":"component",
        "_component":"graphic",
        "_classes":"",
        "_layout":"right",
        "title":"",
        "displayTitle":"",
        "body":"",
        "instruction":"",
        "_graphic": {
            "alt": "Zynga",
            "large": "course/en/images/zynga_ss.jpg",
            "small": "course/en/images/zynga_ss.jpg",
            "attribution":""
        }
    },
    {
        "_id":"c-521",
        "_parentId":"b-52",
        "_type":"component",
        "_component":"text",
        "_classes":"",
        "_layout":"full",
        "title":"SpearmintLove",
        "displayTitle":"SpearmintLOVE",
        "body":"<img src='course/en/images/spear.jpg'><br><br><div align='center'><table width=90%><tr><td width=33%><div align='center' style='color:#4080FF; font-weight: bold; font-size: 36px'>38 kat</div><br><div align='center' style='color:#4080FF; font-weight: bold; font-size: 16px; padding-right:40px'>Audience Network’ten 38 kat reklam harcaması getirisi<sup>2</sup></div></td><td width=34%><div align='center' style='color:#4080FF; font-weight: bold; font-size: 36px'>14,6 kat</div><br><div align='center' style='color:#4080FF; font-weight: bold; font-size: 16px; padding-right:20px'>Facebook, Audience Network ve Instagram’dan toplam 14,6 kat reklam harcaması getirisi<sup>2</sup></div></td></tr></table></div>",
            "instruction":"",
            "_pageLevelProgress": {
                "_isEnabled": true
            }
    },
    {
        "_id":"c-531",
        "_parentId":"b-53",
        "_type":"component",
        "_component":"text",
        "_classes":"",
        "_layout":"left",
        "title":"Müşterileri yeniden hedefleme",
        "displayTitle":"Müşterileri yeniden hedefleme",
        "body":"SpearmintLOVE, 2013 yılında popüler blogcu anne Shari Lott tarafından kuruldu ve büyüyerek bebek ve çocuk giysileri ile aksesuarlarından oluşan geniş bir ürün portföyüne sahip oldu. SpearmintLOVE ekibi, daha fazla müşteriye daha kolay şekilde erişmek istiyor, özellikle de internet sitesini ziyaret etmiş ancak henüz alışveriş yapmamış kişilere odaklanmayı amaçlıyordu.<br><br>İşletme organik gönderileriyle büyük başarı elde etmişti ancak Facebook, Instagram ve Audience Network üzerinden reklam yayınladıktan sonra gerçek anlamda büyümeye başladı. Şirket bu büyümeyi sürdürmek için Reklam Yöneticisi’ni kullanarak tek bir kod satırına dokunmadan Facebook pikselini üçüncü taraf e-ticaret sitesi BigCommerce ile entegre etti.<br><br><em>“Ürün ortaklarımızla birlikte 3 yıl boyunca bir hedef kitle ve harika ilişkiler geliştirdikten sonra, işletmemizi ne kadar hızlı büyütebileceğimizi görmek için doğru zamanın geldiğini biliyorduk. İlk Facebook reklamlarımız bizim için büyük değişikliklerin kapısını araladı. 2016’da, 2015 yılına kıyasla %1110 büyüdük ve bu neredeyse tamamen Facebook reklamları sayesinde gerçekleşti. Facebook reklamları, reklam stratejimizin temel taşını oluşturmaya devam ediyor.”</em><br><br><div align='right'>-John Lott, CFO/COO, SpearmintLOVE</div><br><br><sup>2</sup><cite><a href='https://www.facebook.com/business/success/spearmintlove' target=_blank>SpearmintLove - Facebook Başarı Hikayeleri</a></cite>",
            "instruction":"",
            "_pageLevelProgress": {
                "_isEnabled": true
            }
    },
    {
       "_id":"c-532",
        "_parentId":"b-53",
        "_type":"component",
        "_component":"graphic",
        "_classes":"",
        "_layout":"right",
        "title":"",
        "displayTitle":"",
        "body":"",
        "instruction":"",
        "_graphic": {
            "alt": "SpearmintLove",
            "large": "course/en/images/spearmint.jpg",
            "small": "course/en/images/spearmint.jpg",
            "attribution":""
        }
    },
    {
        "_id":"c-541",
        "_parentId":"b-54",
        "_type":"component",
        "_component":"text",
        "_classes":"",
        "_layout":"full",
        "title":"Visa",
        "displayTitle":"Visa: CPA verimliliğini artırma",
        "body":"<div align='center'><table width=90%><tr><td width=33%><div align='center' style='color:#4080FF; font-weight: bold; font-size: 36px'>%15</div><br><div align='center' style='color:#4080FF; font-weight: bold; font-size: 16px; padding-right:40px'>Erişim artışı<sup>3</sup></div></td><td width=34%><div align='center' style='color:#4080FF; font-weight: bold; font-size: 36px'>2,5 kat</div><br><div align='center' style='color:#4080FF; font-weight: bold; font-size: 16px; padding-right:20px'>Daha verimli CPA<sup>3</sup></div></td></tr></table></div>",
            "instruction":"",
            "_pageLevelProgress": {
                "_isEnabled": true
            }
    },
    {
        "_id":"c-551",
        "_parentId":"b-55",
        "_type":"component",
        "_component":"text",
        "_classes":"",
        "_layout":"left",
        "title":"CPA verimliliğini artırma",
        "displayTitle":"",
        "body":"<br><br>Visa, internetten ödeme yapmanın daha kolay bir yolunu sunan Visa Checkout’un tanıtımını yapmak için Facebook Audience Network’ten yararlanmaya karar verdi. Şirket, Facebook Haber Kaynağı’ndaki verimlilik oranından ödün vermeden erişimini %15 genişletmeyi başardı. Visa, yürüttüğü başka bir kampanyada, hem Audience Network’te hem de Facebook’ta reklam yayınlayarak kampanya ortalamasına kıyasla yeni müşteri başına 2,5 kata kadar daha düşük ücret elde etti.<br><br><em>“Audience Network’ün mobilde verimli bir büyüme kaydetmemize sağladığı katkı bizim için oldukça heyecan verici. Audience Network gelişmeye devam ettikçe, biz de daha büyük başarılara imza atma yolunda ilerliyoruz.”</em><br><br><div align='right'>- Gloria Ahn, ABD Tüketici Odaklı Pazarlama, Visa</div><br><br><sup>3</sup><cite>Visa - Facebook Başarı Hikayesi</cite>",
            "instruction":"",
            "_pageLevelProgress": {
                "_isEnabled": true
            }
    },
    {
       "_id":"c-552",
        "_parentId":"b-55",
        "_type":"component",
        "_component":"graphic",
        "_classes":"",
        "_layout":"right",
        "title":"",
        "displayTitle":"",
        "body":"",
        "instruction":"",
        "_graphic": {
            "alt": "Visa",
            "large": "course/en/images/visa.jpg",
            "small": "course/en/images/visa.jpg",
            "attribution":""
        }
    },
    {
        "_id": "c-591",
        "_parentId": "b-59",
        "_type": "component",
        "_component": "co-jump",
        "_classes": "color-test",
        "_preLinkBody": "Bu kursta çok şey öğrendiniz, gelin şimdi öğrendiklerinizi gözden geçirelim: ",
        "_linkBody": "Özet ve Bilgi Kontrolü",
        "_postLinkBody": ".",
        "_link": "#/id/co-60",
        "_graphic": "adapt/css/assets/icon_nextPage.png",
        "_pageLevelProgress": {
            "_isEnabled": false
        }
    },
    {
        "_id":"c-601",
        "_parentId":"b-60",
        "_type":"component",
        "_component":"graphic",
        "_classes":"",
        "_layout":"right",
        "title":"İçerik Obje Başlığı",
        "displayTitle":"",
        "body":"",
        "instruction":"",
        "_graphic": {
            "alt": "Özet",
            "large": "course/en/images/summary.jpg",
            "small": "course/en/images/summary.jpg",
            "attribution":""
        }
    },
    {
        "_id":"c-602",
        "_parentId":"b-60",
        "_type":"component",
        "_component":"text",
        "_classes":"",
        "_layout":"left",
        "title":"Özet",
        "displayTitle":"Özet",
        "body":"Facebook reklamları; insanlara dayalı pazarlama, gelişmiş ölçümler ve yenilikçi formatlar kullanarak işletmenizin gerçek sonuçlar elde etmesine yardımcı olur.  Audience Network, aynı araçları kullanarak Facebook kampanyalarınızın yüksek kaliteli başka sitelerde ve uygulamalarda da yayınlanmasını sağlamanıza imkan tanır. Böylece daha çok insana erişebilir ve pek çok durumda doğrudan pazarlama kampanyalarınızın performansını ve verimliliğini artırabilirsiniz.",
            "instruction":"",
            "_pageLevelProgress": {
                "_isEnabled": true
            }
    },
        {
        "_id":"c-611",
        "_parentId":"b-61",
        "_type":"component",
        "_component":"text",
        "_classes":"",
        "_layout":"full",
        "title":"Özet",
        "displayTitle":"Kilit bilgiler",
        "body":"<ul><li><strong>İnsanlara bulundukları yerde erişin</strong><br>Mobilde harcanan her 5 dakikadan 1’i Facebook’ta geçiriliyor. Audience Network, insanlara zaman geçirdikleri diğer uygulamalarda ve sitelerde erişmenize yardımcı olabilir.<sup>1</sup></li><li><strong>Kampanyalarınızın erişimini genişletin</strong><br>Audience Network, hedef kitlelere zaten etkileşimde oldukları uygulamalarda ve sitelerde erişmek amacıyla Facebook’un insanlara dayalı hedefleme özelliğini kullanarak potansiyel hedef kitlenizi genişletmenize yardımcı olabilir. Audience Network’ü kullanan reklamverenler, yalnızca Facebook ve Instagram’da reklam vermeye kıyasla ortalama %16 daha fazla kişiye erişebilir.<sup>2</sup></li><li><strong>Kampanya performansını iyileştirin</strong><br>Mobil uygulama kampanyaları için Facebook ve Audience Network bir arada kullanıldığında, reklamverenlerin yüklemelerde ortalama %17, uygulamadaki alışverişlerde ise %9 artış elde ettiği görüldü.<sup>3</sup></li><li><strong>Reklamları çeşitli reklam alanlarında yayınlayın</strong><br>Reklamları platforma özel, ara reklam, reklam bandı, yayın içi ve ödüllü video reklam alanlarında yayınlayın.</li><li><strong>A/B testleri yapın</strong><br>Audience Network’te reklam yayınlamanın kampanyalarınız üzerindeki etkisi de dahil olmak üzere neyin en çok işe yaradığını görmek için farklı reklam değişkenlerini test edin.</li></ul><br><br><sup>1</sup><cite>Nielsen Mobile Netview, Mart 2016 (Facebook/IG Verileri)</cite><br><sup>2</sup><cite>Dahili Facebook Verileri, Global erişim, Ocak 2017</cite><br><sup>3</sup><cite>Dahili Facebook Verileri, mobil uygulama kampanyalarının analizi, Ekim 2016</cite>",
            "instruction":"",
            "_pageLevelProgress": {
                "_isEnabled": true
            }
    },
    {
        "_id":"c-621",
        "_parentId":"b-62",
        "_type":"component",
        "_component":"text",
        "_classes":"",
        "_layout":"full",
        "title":"asdfadf",
        "displayTitle":"Bilgi kontrolü",
        "body":"Lütfen aşağıdaki bilgi kontrolünü tamamlayarak bu kursta öğrendiğiniz bilgileri ne kadar iyi anladığınızı kontrol edin. Her soruyu okuyun, cevaplarınızı seçin (birden fazla doğru cevap olabilir) ve cevaplarınızı kontrol etmek ve geribildirim almak için <strong>Gönder</strong>’e tıklayın.",
            "instruction":"",
            "_pageLevelProgress": {
                "_isEnabled": true
            }
    },
    {
        "_id":"c-631",
        "_parentId":"b-63",
      "_type":"component",
      "_component":"mcq",
      "_setCompletionOn":"inview",
      "_classes":"",
      "_layout":"full",
      "_attempts":1,
      "_shouldDisplayAttempts": false,
      "_questionWeight":1,
      "_isRandom":false,
      "_selectable":3,
      "title": "Soru 1/4",
      "displayTitle": "Soru 1/4",
      "body": "Hangi doğrudan pazarlama reklam verme amaçları Audience Network’ü destekler? (üç seçim yapın)",
      "instruction": "",
      "_items": [
            {
              "text": "Uygulama yüklemeleri",
              "_shouldBeSelected":true
            },
            {
               "text": "Dönüşümler",
              "_shouldBeSelected":true
            },
            {
              "text": "Ürün kataloğu satışları",
              "_shouldBeSelected":true
            },
            {
              "text": "Mağaza ziyaretleri",
              "_shouldBeSelected":false
            }
        ],
        "_feedback":{
            "correct":"Tebrikler, cevabınız doğru! Aşağıdaki doğrudan pazarlama reklam verme amaçlarını kullanarak Audience Network’te reklam yayınlayabilirsiniz: Uygulama yüklemeleri, Dönüşümler, Ürün kataloğu satışları ve Gönderi etkileşimi. Mağaza ziyaretleri reklam verme amacı şimdilik Audience Network’ü desteklememektedir. ",
            "_incorrect": {
              "notFinal": "",
              "final": "Üzgünüz, yanlış cevap. Aşağıdaki doğrudan pazarlama reklam verme amaçlarını kullanarak Audience Network’te reklam yayınlayabilirsiniz: Uygulama yüklemeleri, Dönüşümler, Ürün kataloğu satışları ve Gönderi etkileşimi. Mağaza ziyaretleri reklam verme amacı şimdilik Audience Network’ü desteklememektedir. "
            },
            "_partlyCorrect": {
              "notFinal": "",
              "final": "Üzgünüz, yanlış cevap. Aşağıdaki doğrudan pazarlama reklam verme amaçlarını kullanarak Audience Network’te reklam yayınlayabilirsiniz: Uygulama yüklemeleri, Dönüşümler, Ürün kataloğu satışları ve Gönderi etkileşimi. Mağaza ziyaretleri reklam verme amacı şimdilik Audience Network’ü desteklememektedir. "
            }
        },
        "_buttons": {
        "_submit": {
          "buttonText": "Gönder",
          "ariaLabel": "Cevabınızı göndermek için buraya tıklayın."
        },
        "_reset": {
          "buttonText": "Sıfırla",
          "ariaLabel": ""
        },
        "_showCorrectAnswer": {
          "buttonText": "Doğru Cevap",
          "ariaLabel": ""
        },
        "_hideCorrectAnswer": {
          "buttonText": "Benim Cevabım",
          "ariaLabel": ""
        },
        "_showFeedback": {
          "buttonText": "Geribildirimi göster",
          "ariaLabel": ""
        },
            "remainingAttemptsText": "deneme kaldı",
            "remainingAttemptText": "son deneme"
        },
        "_pageLevelProgress": {
            "_isEnabled": true
        }
    },
    {
      "_id":"c-641",
      "_parentId":"b-64",
      "_type":"component",
      "_component":"mcq",
      "_classes":"",
      "_layout":"full",
      "_attempts":1,
      "_setCompletionOn":"inview",
      "_shouldDisplayAttempts": false,
      "_questionWeight":1,
      "_isRandom":false,
      "_selectable":3,
      "title": "Soru 2/4",
      "displayTitle": "Soru 2/4",
      "body": "Audience Network’te sunulan doğrudan pazarlama amaçları için hangi reklam formatları kullanılabilir?",
      "instruction": "",
      "_items": [
            {
              "text": "Görsel",
              "_shouldBeSelected":true
            },
            {
              "text": "Koleksiyonlar",
              "_shouldBeSelected":false
            },
            {
               "text": "Video",
              "_shouldBeSelected":true
            },
            {
              "text": "Döngü",
              "_shouldBeSelected":true
            }

        ],
        "_feedback":{
            "correct":"Tebrikler, cevabınız doğru! Tek görsel, tek video ve döngü (görsel) çoğu doğrudan pazarlama amacı için desteklenmekte, ancak koleksiyon formatı ve Kanvas şimdilik Audience Network’te kullanılamamaktadır.",
            "_incorrect": {
              "notFinal": "",
              "final": "Üzgünüz, yanlış cevap. Tek görsel, tek video ve döngü (görsel) çoğu doğrudan pazarlama amacı için desteklenmekte, ancak koleksiyon formatı ve Kanvas şimdilik Audience Network’te kullanılamamaktadır."
            },
            "_partlyCorrect": {
              "notFinal": "",
              "final": "Üzgünüz, yanlış cevap. Tek görsel, tek video ve döngü (görsel) çoğu doğrudan pazarlama amacı için desteklenmekte, ancak koleksiyon formatı ve Kanvas şimdilik Audience Network’te kullanılamamaktadır."
            }
        },
        "_buttons": {
        "_submit": {
          "buttonText": "Gönder",
          "ariaLabel": "Cevabınızı göndermek için buraya tıklayın."
        },
        "_reset": {
          "buttonText": "Sıfırla",
          "ariaLabel": ""
        },
        "_showCorrectAnswer": {
          "buttonText": "Doğru Cevap",
          "ariaLabel": ""
        },
        "_hideCorrectAnswer": {
          "buttonText": "Benim Cevabım",
          "ariaLabel": ""
        },
        "_showFeedback": {
          "buttonText": "Geribildirimi göster",
          "ariaLabel": ""
        },
            "remainingAttemptsText": "deneme kaldı",
            "remainingAttemptText": "son deneme"
        },
        "_pageLevelProgress": {
            "_isEnabled": true
        }
    },
    {
        "_id":"c-651",
        "_parentId":"b-65",
        "_type":"component",
        "_component":"mcq",
        "_classes":"",
        "_layout":"full",
        "_attempts":1,
        "_shouldDisplayAttempts": false,
        "_questionWeight":1,
        "_setCompletionOn":"inview",
        "_isRandom":false,
        "_selectable":3,
        "title": "Soru 3/4",
        "displayTitle": "Soru 3/4",
        "body": "Audience Network marka güvenliğinin sağlanmasına yardımcı olmak için reklamverenlere ne tür araçlar sunuyor? (üç seçim yapın)",
        "instruction": "",
        "_items": [
            {
              "text": "Kampanya öncesi şeffaflık",
              "_shouldBeSelected":true
              },
            {
              "text": "Beyaz listeye alma",
              "_shouldBeSelected":false
            },
            {
              "text": "Kategori kontrolleri",
              "_shouldBeSelected":true
            },
            {
              "text": "Engellenenler listeleri",
              "_shouldBeSelected":true
                     }
        ],
        "_feedback":{
            "correct":"Tebrikler, cevabınız doğru! Reklamverenler marka imajını sürdürmek için kampanya öncesi şeffaflık, kategori kontrolleri ve engellenenler listeleri gibi özellikleri kullanabilir. Ancak reklam yayınının optimize edilebilmesi için beyaz listeye alma özelliği kullanılamamaktadır.",
            "_incorrect": {
              "notFinal": "",
              "final": "Üzgünüz, yanlış cevap. Reklamverenler marka imajını sürdürmek için kampanya öncesi şeffaflık, kategori kontrolleri ve engellenenler listeleri gibi özellikleri kullanabilir. Ancak reklam yayınının optimize edilebilmesi için beyaz listeye alma özelliği kullanılamamaktadır."
            },
            "_partlyCorrect": {
              "notFinal": "",
              "final": "Üzgünüz, yanlış cevap.  Reklamverenler marka imajını sürdürmek için kampanya öncesi şeffaflık, kategori kontrolleri ve engellenenler listeleri gibi özellikleri kullanabilir. Ancak reklam yayınının optimize edilebilmesi için beyaz listeye alma özelliği kullanılamamaktadır."
            }
        },
        "_buttons": {
        "_submit": {
          "buttonText": "Gönder",
          "ariaLabel": "Cevabınızı göndermek için buraya tıklayın."
        },
        "_reset": {
          "buttonText": "Sıfırla",
          "ariaLabel": ""
        },
        "_showCorrectAnswer": {
          "buttonText": "Doğru Cevap",
          "ariaLabel": ""
        },
        "_hideCorrectAnswer": {
          "buttonText": "Benim Cevabım",
          "ariaLabel": ""
        },
        "_showFeedback": {
          "buttonText": "Geribildirimi göster",
          "ariaLabel": ""
        },
            "remainingAttemptsText": "deneme kaldı",
            "remainingAttemptText": "son deneme"
        },
        "_pageLevelProgress": {
            "_isEnabled": true
        }
    },
    {
      "_id":"c-661",
      "_parentId":"b-66",
      "_type":"component",
      "_component":"mcq",
      "_classes":"",
      "_layout":"full",
      "_attempts":1,
      "_shouldDisplayAttempts": false,
      "_setCompletionOn":"inview",
      "_questionWeight":1,
      "_isRandom":false,
      "_selectable":3,
      "title": "Soru 4/4",
      "displayTitle": "Soru 4/4",
      "body": "A/B testi hakkında aşağıdakilerden hangileri doğrudur? (üç seçim yapın)",
      "instruction": "",
      "_items": [
            {
              "text": "Bir hedef kitleyi “test” ve “kontrol” olmak üzere rastgele iki gruba böler.",
              "_shouldBeSelected":true
              },
            {
              "text": "Bölünmüş test olarak da bilinir.",
              "_shouldBeSelected":true
            },
            {
              "text": "Reklamverenlerin reklam alanlarının, kreatiflerin ve hedefleme seçeneklerinin verimliliğini test etmesini sağlar. ",
              "_shouldBeSelected":true
            },
            {
              "text": "Tüm doğrudan pazarlama reklam verme amaçları için kullanılabilir. ",
              "_shouldBeSelected":false
            }
        ],
        "_feedback":{
            "correct":"Tebrikler, cevabınız doğru! A/B testleri, reklamverenlerin reklamların farklı unsurlarının kampanya performansını nasıl etkilediğini anlamalarına yardımcı olur. Uygulama yüklemeleri ve Dönüşümler doğrudan pazarlama reklam verme amaçları için kullanılabilir.",
            "_incorrect": {
              "notFinal": "",
              "final": "Üzgünüz, yanlış cevap. A/B testleri, reklamverenlerin reklamların farklı unsurlarının kampanya performansını nasıl etkilediğini anlamalarına yardımcı olur. Uygulama yüklemeleri ve Dönüşümler doğrudan pazarlama reklam verme amaçları için kullanılabilir."
            },
            "_partlyCorrect": {
              "notFinal": "",
              "final": "Üzgünüz, yanlış cevap. A/B testleri, reklamverenlerin reklamların farklı unsurlarının kampanya performansını nasıl etkilediğini anlamalarına yardımcı olur. Uygulama yüklemeleri ve Dönüşümler doğrudan pazarlama reklam verme amaçları için kullanılabilir."
            }
        },
        "_buttons": {
        "_submit": {
          "buttonText": "Gönder",
          "ariaLabel": "Cevabınızı göndermek için buraya tıklayın."
        },
        "_reset": {
          "buttonText": "Sıfırla",
          "ariaLabel": ""
        },
        "_showCorrectAnswer": {
          "buttonText": "Doğru Cevap",
          "ariaLabel": ""
        },
        "_hideCorrectAnswer": {
          "buttonText": "Benim Cevabım",
          "ariaLabel": ""
        },
        "_showFeedback": {
          "buttonText": "Geribildirimi göster",
          "ariaLabel": ""
        },
            "remainingAttemptsText": "deneme kaldı",
            "remainingAttemptText": "son deneme"
        },
        "_pageLevelProgress": {
            "_isEnabled": true
        }
    },
    
        {
        "_id": "c-691",
        "_parentId": "b-69",
        "_type":"component",
        "_component":"co-jump",
        "_classes":"color-test",
        "_autoComplete":true,
        "_preLinkBody":"Bu kursu bitirmek için aşağıdaki düğmeye tıklayın. Not: Tüm modüller için durum çubuklarının tamamlandığından emin olmak için <a href='#'>buraya tıklayın</a>.<br>",
        "_linkBody":"<div style = 'text-align:center;padding:8px;'><button class='buttons-action'><b>BU KURSU BİTİRDİM</b></button></div><br> ",
        "_postLinkBody":"",
        "_link":"",
        "_pageLevelProgress": {
            "_isEnabled": false
        }
    }

]
